{"users":[{"id":"cmf1vekdj010cqs9475solazn","email":"eleve.sc3.e@nexus.com","firstName":"Eleve","lastName":"eleve.sc3.e","role":"ELEVE","createdAt":"2025-09-02T01:29:19.015Z","profile":{"id":"cmf1vekdl010eqs941micat99","parentId":"cmf1vek3u00r5qs94ctqulawl","userId":"cmf1vekdj010cqs9475solazn","grade":"Première","school":null,"birthDate":null,"credits":6,"totalSessions":0,"completedSessions":0,"freemiumUsage":null,"guaranteeEligible":true,"guaranteeActivatedAt":"2025-08-23T01:29:19.016Z","createdAt":"2025-09-02T01:29:19.017Z","updatedAt":"2025-09-02T01:29:19.017Z"}},{"id":"cmf1vekb400y3qs94j1ct7owv","email":"eleve.sc3.d@nexus.com","firstName":"Eleve","lastName":"eleve.sc3.d","role":"ELEVE","createdAt":"2025-09-02T01:29:18.928Z","profile":{"id":"cmf1vekb600y5qs940oab6kxm","parentId":"cmf1vek3u00r5qs94ctqulawl","userId":"cmf1vekb400y3qs94j1ct7owv","grade":"Terminale","school":null,"birthDate":null,"credits":0,"totalSessions":0,"completedSessions":0,"freemiumUsage":null,"guaranteeEligible":false,"guaranteeActivatedAt":null,"createdAt":"2025-09-02T01:29:18.930Z","updatedAt":"2025-09-02T01:29:18.930Z"}},{"id":"cmf1vek8p00vsqs94x6jrlhxf","email":"eleve.sc3.c@nexus.com","firstName":"Eleve","lastName":"eleve.sc3.c","role":"ELEVE","createdAt":"2025-09-02T01:29:18.842Z","profile":{"id":"cmf1vek8r00vuqs94vi91qgkv","parentId":"cmf1vek3u00r5qs94ctqulawl","userId":"cmf1vek8p00vsqs94x6jrlhxf","grade":"Terminale","school":null,"birthDate":null,"credits":10,"totalSessions":0,"completedSessions":0,"freemiumUsage":null,"guaranteeEligible":true,"guaranteeActivatedAt":"2025-08-23T01:29:18.843Z","createdAt":"2025-09-02T01:29:18.843Z","updatedAt":"2025-09-02T01:29:18.843Z"}},{"id":"cmf1vek6b00thqs94lpj4ss04","email":"eleve.sc3.b@nexus.com","firstName":"Eleve","lastName":"eleve.sc3.b","role":"ELEVE","createdAt":"2025-09-02T01:29:18.755Z","profile":{"id":"cmf1vek6c00tjqs9479obi0bm","parentId":"cmf1vek3u00r5qs94ctqulawl","userId":"cmf1vek6b00thqs94lpj4ss04","grade":"Première","school":null,"birthDate":null,"credits":3,"totalSessions":0,"completedSessions":0,"freemiumUsage":null,"guaranteeEligible":true,"guaranteeActivatedAt":"2025-08-23T01:29:18.756Z","createdAt":"2025-09-02T01:29:18.757Z","updatedAt":"2025-09-02T01:29:18.757Z"}},{"id":"cmf1vek3v00r6qs940iw9ufor","email":"eleve.sc3.a@nexus.com","firstName":"Eleve","lastName":"eleve.sc3.a","role":"ELEVE","createdAt":"2025-09-02T01:29:18.668Z","profile":{"id":"cmf1vek3x00r8qs94xn67f5yq","parentId":"cmf1vek3u00r5qs94ctqulawl","userId":"cmf1vek3v00r6qs940iw9ufor","grade":"Seconde","school":null,"birthDate":null,"credits":0,"totalSessions":0,"completedSessions":0,"freemiumUsage":null,"guaranteeEligible":false,"guaranteeActivatedAt":null,"createdAt":"2025-09-02T01:29:18.670Z","updatedAt":"2025-09-02T01:29:18.670Z"}},{"id":"cmf1vek1600ooqs94lrotuq1c","email":"eleve.sc2.e@nexus.com","firstName":"Eleve","lastName":"eleve.sc2.e","role":"ELEVE","createdAt":"2025-09-02T01:29:18.570Z","profile":{"id":"cmf1vek1800oqqs94sf0fxofw","parentId":"cmf1vejr100fbqs94wq8ln7od","userId":"cmf1vek1600ooqs94lrotuq1c","grade":"Première","school":null,"birthDate":null,"credits":6,"totalSessions":0,"completedSessions":0,"freemiumUsage":null,"guaranteeEligible":true,"guaranteeActivatedAt":"2025-08-23T01:29:18.572Z","createdAt":"2025-09-02T01:29:18.572Z","updatedAt":"2025-09-02T01:29:18.572Z"}},{"id":"cmf1vejyp00mfqs94kordqr1e","email":"eleve.sc2.d@nexus.com","firstName":"Eleve","lastName":"eleve.sc2.d","role":"ELEVE","createdAt":"2025-09-02T01:29:18.481Z","profile":{"id":"cmf1vejyr00mhqs94nvznipft","parentId":"cmf1vejr100fbqs94wq8ln7od","userId":"cmf1vejyp00mfqs94kordqr1e","grade":"Terminale","school":null,"birthDate":null,"credits":0,"totalSessions":0,"completedSessions":0,"freemiumUsage":null,"guaranteeEligible":false,"guaranteeActivatedAt":null,"createdAt":"2025-09-02T01:29:18.483Z","updatedAt":"2025-09-02T01:29:18.483Z"}},{"id":"cmf1vejw600k2qs94yyi3f2da","email":"eleve.sc2.c@nexus.com","firstName":"Eleve","lastName":"eleve.sc2.c","role":"ELEVE","createdAt":"2025-09-02T01:29:18.391Z","profile":{"id":"cmf1vejw800k4qs94fwysu8k3","parentId":"cmf1vejr100fbqs94wq8ln7od","userId":"cmf1vejw600k2qs94yyi3f2da","grade":"Terminale","school":null,"birthDate":null,"credits":10,"totalSessions":0,"completedSessions":0,"freemiumUsage":null,"guaranteeEligible":true,"guaranteeActivatedAt":"2025-08-23T01:29:18.392Z","createdAt":"2025-09-02T01:29:18.393Z","updatedAt":"2025-09-02T01:29:18.393Z"}},{"id":"cmf1vejtm00hpqs94y48s6nn8","email":"eleve.sc2.b@nexus.com","firstName":"Eleve","lastName":"eleve.sc2.b","role":"ELEVE","createdAt":"2025-09-02T01:29:18.299Z","profile":{"id":"cmf1vejto00hrqs94hoq9cin2","parentId":"cmf1vejr100fbqs94wq8ln7od","userId":"cmf1vejtm00hpqs94y48s6nn8","grade":"Première","school":null,"birthDate":null,"credits":3,"totalSessions":0,"completedSessions":0,"freemiumUsage":null,"guaranteeEligible":true,"guaranteeActivatedAt":"2025-08-23T01:29:18.300Z","createdAt":"2025-09-02T01:29:18.300Z","updatedAt":"2025-09-02T01:29:18.300Z"}},{"id":"cmf1vejr300fcqs948exqxgbh","email":"eleve.sc2.a@nexus.com","firstName":"Eleve","lastName":"eleve.sc2.a","role":"ELEVE","createdAt":"2025-09-02T01:29:18.207Z","profile":{"id":"cmf1vejr500feqs94wevera71","parentId":"cmf1vejr100fbqs94wq8ln7od","userId":"cmf1vejr300fcqs948exqxgbh","grade":"Seconde","school":null,"birthDate":null,"credits":0,"totalSessions":0,"completedSessions":0,"freemiumUsage":null,"guaranteeEligible":false,"guaranteeActivatedAt":null,"createdAt":"2025-09-02T01:29:18.209Z","updatedAt":"2025-09-02T01:29:18.209Z"}}],"pagination":{"page":1,"limit":10,"total":24,"totalPages":3}}