{"users":[{"id":"cmf1vekdj010cqs9475solazn","email":"eleve.sc3.e@nexus.com","firstName":"Eleve","lastName":"eleve.sc3.e","role":"ELEVE","createdAt":"2025-09-02T01:29:19.015Z","profile":{"id":"cmf1vekdl010eqs941micat99","parentId":"cmf1vek3u00r5qs94ctqulawl","userId":"cmf1vekdj010cqs9475solazn","grade":"Première","school":null,"birthDate":null,"credits":6,"totalSessions":0,"completedSessions":0,"freemiumUsage":null,"guaranteeEligible":true,"guaranteeActivatedAt":"2025-08-23T01:29:19.016Z","createdAt":"2025-09-02T01:29:19.017Z","updatedAt":"2025-09-02T01:29:19.017Z"}}],"pagination":{"page":1,"limit":1,"total":50,"totalPages":50}}